docs/tb_keccak256-log.txt
time=  0, clk=0, reset=0, in=00000000, in_ready=0, is_last=0, byte_num=00, out=zzzzzzzzxxxxxxxxzzzzzzzzxxxxxxxxzzzzzzzzxxxxxxxxzzzzzzzzxxxxxxxx, out_ready=x, uut.padder_out_ready=x, uut.padder_out_1=xxxxxxxxxxxxxxxxxxxxxxxxxxxxxxxxxxxxxxxxxxxxxxxxxxxxxxxxxxxxxxxxxxxxxxxxxxxxxxxxxxxxxxxxxxxxxxxxxxxxxxxxxxxxxxxxxxxxxxxxxxxxxxxxxxxxxxxxxxxxxxxxxxxxxxxxxxxxxxxxxxxxxxxxxxxxxxxxxxxxxxxxxxxxxxxxxxxxxxxxxxxxxxxxxxxxxxxxxxxxxxxxxxxxxxxxxxxxxxxxxxxxxxxxxxxxxxxxxxxxxxxxxxxxxxxx 

time= 10, clk=1, reset=0, in=00000000, in_ready=0, is_last=0, byte_num=00, out=zzzzzzzzxxxxxxxxzzzzzzzzxxxxxxxxzzzzzzzzxxxxxxxxzzzzzzzzxxxxxxxx, out_ready=x, uut.padder_out_ready=x, uut.padder_out_1=xxxxxxxxxxxxxxxxxxxxxxxxxxxxxxxxxxxxxxxxxxxxxxxxxxxxxxxxxxxxxxxxxxxxxxxxxxxxxxxxxxxxxxxxxxxxxxxxxxxxxxxxxxxxxxxxxxxxxxxxxxxxxxxxxxxxxxxxxxxxxxxxxxxxxxxxxxxxxxxxxxxxxxxxxxxxxxxxxxxxxxxxxxxxxxxxxxxxxxxxxxxxxxxxxxxxxxxxxxxxxxxxxxxxxxxxxxxxxxxxxxxxxxxxxxxxxxxxxxxxxxxxxxxxxxxx 

time= 20, clk=0, reset=0, in=00000000, in_ready=0, is_last=0, byte_num=00, out=zzzzzzzzxxxxxxxxzzzzzzzzxxxxxxxxzzzzzzzzxxxxxxxxzzzzzzzzxxxxxxxx, out_ready=x, uut.padder_out_ready=x, uut.padder_out_1=xxxxxxxxxxxxxxxxxxxxxxxxxxxxxxxxxxxxxxxxxxxxxxxxxxxxxxxxxxxxxxxxxxxxxxxxxxxxxxxxxxxxxxxxxxxxxxxxxxxxxxxxxxxxxxxxxxxxxxxxxxxxxxxxxxxxxxxxxxxxxxxxxxxxxxxxxxxxxxxxxxxxxxxxxxxxxxxxxxxxxxxxxxxxxxxxxxxxxxxxxxxxxxxxxxxxxxxxxxxxxxxxxxxxxxxxxxxxxxxxxxxxxxxxxxxxxxxxxxxxxxxxxxxxxxxx 

time= 30, clk=1, reset=0, in=00000000, in_ready=0, is_last=0, byte_num=00, out=zzzzzzzzxxxxxxxxzzzzzzzzxxxxxxxxzzzzzzzzxxxxxxxxzzzzzzzzxxxxxxxx, out_ready=x, uut.padder_out_ready=x, uut.padder_out_1=xxxxxxxxxxxxxxxxxxxxxxxxxxxxxxxxxxxxxxxxxxxxxxxxxxxxxxxxxxxxxxxxxxxxxxxxxxxxxxxxxxxxxxxxxxxxxxxxxxxxxxxxxxxxxxxxxxxxxxxxxxxxxxxxxxxxxxxxxxxxxxxxxxxxxxxxxxxxxxxxxxxxxxxxxxxxxxxxxxxxxxxxxxxxxxxxxxxxxxxxxxxxxxxxxxxxxxxxxxxxxxxxxxxxxxxxxxxxxxxxxxxxxxxxxxxxxxxxxxxxxxxxxxxxxxxx 

time= 40, clk=0, reset=0, in=00000000, in_ready=0, is_last=0, byte_num=00, out=zzzzzzzzxxxxxxxxzzzzzzzzxxxxxxxxzzzzzzzzxxxxxxxxzzzzzzzzxxxxxxxx, out_ready=x, uut.padder_out_ready=x, uut.padder_out_1=xxxxxxxxxxxxxxxxxxxxxxxxxxxxxxxxxxxxxxxxxxxxxxxxxxxxxxxxxxxxxxxxxxxxxxxxxxxxxxxxxxxxxxxxxxxxxxxxxxxxxxxxxxxxxxxxxxxxxxxxxxxxxxxxxxxxxxxxxxxxxxxxxxxxxxxxxxxxxxxxxxxxxxxxxxxxxxxxxxxxxxxxxxxxxxxxxxxxxxxxxxxxxxxxxxxxxxxxxxxxxxxxxxxxxxxxxxxxxxxxxxxxxxxxxxxxxxxxxxxxxxxxxxxxxxxx 

time= 50, clk=1, reset=0, in=00000000, in_ready=0, is_last=0, byte_num=00, out=zzzzzzzzxxxxxxxxzzzzzzzzxxxxxxxxzzzzzzzzxxxxxxxxzzzzzzzzxxxxxxxx, out_ready=x, uut.padder_out_ready=x, uut.padder_out_1=xxxxxxxxxxxxxxxxxxxxxxxxxxxxxxxxxxxxxxxxxxxxxxxxxxxxxxxxxxxxxxxxxxxxxxxxxxxxxxxxxxxxxxxxxxxxxxxxxxxxxxxxxxxxxxxxxxxxxxxxxxxxxxxxxxxxxxxxxxxxxxxxxxxxxxxxxxxxxxxxxxxxxxxxxxxxxxxxxxxxxxxxxxxxxxxxxxxxxxxxxxxxxxxxxxxxxxxxxxxxxxxxxxxxxxxxxxxxxxxxxxxxxxxxxxxxxxxxxxxxxxxxxxxxxxxx 

time= 60, clk=0, reset=0, in=00000000, in_ready=0, is_last=0, byte_num=00, out=zzzzzzzzxxxxxxxxzzzzzzzzxxxxxxxxzzzzzzzzxxxxxxxxzzzzzzzzxxxxxxxx, out_ready=x, uut.padder_out_ready=x, uut.padder_out_1=xxxxxxxxxxxxxxxxxxxxxxxxxxxxxxxxxxxxxxxxxxxxxxxxxxxxxxxxxxxxxxxxxxxxxxxxxxxxxxxxxxxxxxxxxxxxxxxxxxxxxxxxxxxxxxxxxxxxxxxxxxxxxxxxxxxxxxxxxxxxxxxxxxxxxxxxxxxxxxxxxxxxxxxxxxxxxxxxxxxxxxxxxxxxxxxxxxxxxxxxxxxxxxxxxxxxxxxxxxxxxxxxxxxxxxxxxxxxxxxxxxxxxxxxxxxxxxxxxxxxxxxxxxxxxxxx 

time= 70, clk=1, reset=0, in=00000000, in_ready=0, is_last=0, byte_num=00, out=zzzzzzzzxxxxxxxxzzzzzzzzxxxxxxxxzzzzzzzzxxxxxxxxzzzzzzzzxxxxxxxx, out_ready=x, uut.padder_out_ready=x, uut.padder_out_1=xxxxxxxxxxxxxxxxxxxxxxxxxxxxxxxxxxxxxxxxxxxxxxxxxxxxxxxxxxxxxxxxxxxxxxxxxxxxxxxxxxxxxxxxxxxxxxxxxxxxxxxxxxxxxxxxxxxxxxxxxxxxxxxxxxxxxxxxxxxxxxxxxxxxxxxxxxxxxxxxxxxxxxxxxxxxxxxxxxxxxxxxxxxxxxxxxxxxxxxxxxxxxxxxxxxxxxxxxxxxxxxxxxxxxxxxxxxxxxxxxxxxxxxxxxxxxxxxxxxxxxxxxxxxxxxx 

time= 80, clk=0, reset=0, in=00000000, in_ready=0, is_last=0, byte_num=00, out=zzzzzzzzxxxxxxxxzzzzzzzzxxxxxxxxzzzzzzzzxxxxxxxxzzzzzzzzxxxxxxxx, out_ready=x, uut.padder_out_ready=x, uut.padder_out_1=xxxxxxxxxxxxxxxxxxxxxxxxxxxxxxxxxxxxxxxxxxxxxxxxxxxxxxxxxxxxxxxxxxxxxxxxxxxxxxxxxxxxxxxxxxxxxxxxxxxxxxxxxxxxxxxxxxxxxxxxxxxxxxxxxxxxxxxxxxxxxxxxxxxxxxxxxxxxxxxxxxxxxxxxxxxxxxxxxxxxxxxxxxxxxxxxxxxxxxxxxxxxxxxxxxxxxxxxxxxxxxxxxxxxxxxxxxxxxxxxxxxxxxxxxxxxxxxxxxxxxxxxxxxxxxxx 

time= 90, clk=1, reset=0, in=00000000, in_ready=0, is_last=0, byte_num=00, out=zzzzzzzzxxxxxxxxzzzzzzzzxxxxxxxxzzzzzzzzxxxxxxxxzzzzzzzzxxxxxxxx, out_ready=x, uut.padder_out_ready=x, uut.padder_out_1=xxxxxxxxxxxxxxxxxxxxxxxxxxxxxxxxxxxxxxxxxxxxxxxxxxxxxxxxxxxxxxxxxxxxxxxxxxxxxxxxxxxxxxxxxxxxxxxxxxxxxxxxxxxxxxxxxxxxxxxxxxxxxxxxxxxxxxxxxxxxxxxxxxxxxxxxxxxxxxxxxxxxxxxxxxxxxxxxxxxxxxxxxxxxxxxxxxxxxxxxxxxxxxxxxxxxxxxxxxxxxxxxxxxxxxxxxxxxxxxxxxxxxxxxxxxxxxxxxxxxxxxxxxxxxxxx 

time=100, clk=0, reset=1, in=00000000, in_ready=0, is_last=0, byte_num=00, out=zzzzzzzzxxxxxxxxzzzzzzzzxxxxxxxxzzzzzzzzxxxxxxxxzzzzzzzzxxxxxxxx, out_ready=x, uut.padder_out_ready=x, uut.padder_out_1=xxxxxxxxxxxxxxxxxxxxxxxxxxxxxxxxxxxxxxxxxxxxxxxxxxxxxxxxxxxxxxxxxxxxxxxxxxxxxxxxxxxxxxxxxxxxxxxxxxxxxxxxxxxxxxxxxxxxxxxxxxxxxxxxxxxxxxxxxxxxxxxxxxxxxxxxxxxxxxxxxxxxxxxxxxxxxxxxxxxxxxxxxxxxxxxxxxxxxxxxxxxxxxxxxxxxxxxxxxxxxxxxxxxxxxxxxxxxxxxxxxxxxxxxxxxxxxxxxxxxxxxxxxxxxxxx 

time=110, clk=1, reset=1, in=00000000, in_ready=0, is_last=0, byte_num=00, out=zzzzzzzz00000000zzzzzzzz00000000zzzzzzzz00000000zzzzzzzz00000000, out_ready=0, uut.padder_out_ready=0, uut.padder_out_1=00000000000000000000000000000000000000000000000000000000000000000000000000000000000000000000000000000000000000000000000000000000000000000000000000000000000000000000000000000000000000000000000000000000000000000000000000000000000000000000000000000000000000000000000000000000 

time=120, clk=0, reset=0, in=00000000, in_ready=0, is_last=0, byte_num=00, out=zzzzzzzz00000000zzzzzzzz00000000zzzzzzzz00000000zzzzzzzz00000000, out_ready=0, uut.padder_out_ready=0, uut.padder_out_1=00000000000000000000000000000000000000000000000000000000000000000000000000000000000000000000000000000000000000000000000000000000000000000000000000000000000000000000000000000000000000000000000000000000000000000000000000000000000000000000000000000000000000000000000000000000 

time=130, clk=1, reset=0, in=00000000, in_ready=0, is_last=0, byte_num=00, out=zzzzzzzz00000000zzzzzzzz00000000zzzzzzzz00000000zzzzzzzz00000000, out_ready=0, uut.padder_out_ready=0, uut.padder_out_1=00000000000000000000000000000000000000000000000000000000000000000000000000000000000000000000000000000000000000000000000000000000000000000000000000000000000000000000000000000000000000000000000000000000000000000000000000000000000000000000000000000000000000000000000000000000 

time=140, clk=0, reset=0, in=00000000, in_ready=0, is_last=0, byte_num=00, out=zzzzzzzz00000000zzzzzzzz00000000zzzzzzzz00000000zzzzzzzz00000000, out_ready=0, uut.padder_out_ready=0, uut.padder_out_1=00000000000000000000000000000000000000000000000000000000000000000000000000000000000000000000000000000000000000000000000000000000000000000000000000000000000000000000000000000000000000000000000000000000000000000000000000000000000000000000000000000000000000000000000000000000 

time=150, clk=1, reset=0, in=00000000, in_ready=0, is_last=0, byte_num=00, out=zzzzzzzz00000000zzzzzzzz00000000zzzzzzzz00000000zzzzzzzz00000000, out_ready=0, uut.padder_out_ready=0, uut.padder_out_1=00000000000000000000000000000000000000000000000000000000000000000000000000000000000000000000000000000000000000000000000000000000000000000000000000000000000000000000000000000000000000000000000000000000000000000000000000000000000000000000000000000000000000000000000000000000 

time=160, clk=0, reset=0, in=00000000, in_ready=0, is_last=0, byte_num=00, out=zzzzzzzz00000000zzzzzzzz00000000zzzzzzzz00000000zzzzzzzz00000000, out_ready=0, uut.padder_out_ready=0, uut.padder_out_1=00000000000000000000000000000000000000000000000000000000000000000000000000000000000000000000000000000000000000000000000000000000000000000000000000000000000000000000000000000000000000000000000000000000000000000000000000000000000000000000000000000000000000000000000000000000 

time=170, clk=1, reset=0, in=00000000, in_ready=0, is_last=0, byte_num=00, out=zzzzzzzz00000000zzzzzzzz00000000zzzzzzzz00000000zzzzzzzz00000000, out_ready=0, uut.padder_out_ready=0, uut.padder_out_1=00000000000000000000000000000000000000000000000000000000000000000000000000000000000000000000000000000000000000000000000000000000000000000000000000000000000000000000000000000000000000000000000000000000000000000000000000000000000000000000000000000000000000000000000000000000 

time=180, clk=0, reset=0, in=00000000, in_ready=0, is_last=0, byte_num=00, out=zzzzzzzz00000000zzzzzzzz00000000zzzzzzzz00000000zzzzzzzz00000000, out_ready=0, uut.padder_out_ready=0, uut.padder_out_1=00000000000000000000000000000000000000000000000000000000000000000000000000000000000000000000000000000000000000000000000000000000000000000000000000000000000000000000000000000000000000000000000000000000000000000000000000000000000000000000000000000000000000000000000000000000 

time=190, clk=1, reset=0, in=00000000, in_ready=0, is_last=0, byte_num=00, out=zzzzzzzz00000000zzzzzzzz00000000zzzzzzzz00000000zzzzzzzz00000000, out_ready=0, uut.padder_out_ready=0, uut.padder_out_1=00000000000000000000000000000000000000000000000000000000000000000000000000000000000000000000000000000000000000000000000000000000000000000000000000000000000000000000000000000000000000000000000000000000000000000000000000000000000000000000000000000000000000000000000000000000 

time=200, clk=0, reset=0, in=d477bcde, in_ready=1, is_last=1, byte_num=10, out=zzzzzzzz00000000zzzzzzzz00000000zzzzzzzz00000000zzzzzzzz00000000, out_ready=0, uut.padder_out_ready=0, uut.padder_out_1=00000000000000000000000000000000000000000000000000000000000000000000000000000000000000000000000000000000000000000000000000000000000000000000000000000000000000000000000000000000000000000000000000000000000000000000000000000000000000000000000000000000000000000000000000000000 

time=210, clk=1, reset=0, in=d477bcde, in_ready=1, is_last=1, byte_num=10, out=zzzzzzzz00000000zzzzzzzz00000000zzzzzzzz00000000zzzzzzzz00000000, out_ready=0, uut.padder_out_ready=0, uut.padder_out_1=000000000000000000000000000000000000000000000000000000000000000000000000000000000000000000000000000000000000000000000000000000000000000000000000000000000000000000000000000000000000000000000000000000000000000000000000000000000000000000000000000000000000000000000000d4770600 

time=220, clk=0, reset=0, in=d477bcde, in_ready=0, is_last=0, byte_num=10, out=zzzzzzzz00000000zzzzzzzz00000000zzzzzzzz00000000zzzzzzzz00000000, out_ready=0, uut.padder_out_ready=0, uut.padder_out_1=000000000000000000000000000000000000000000000000000000000000000000000000000000000000000000000000000000000000000000000000000000000000000000000000000000000000000000000000000000000000000000000000000000000000000000000000000000000000000000000000000000000000000000000000d4770600 

time=230, clk=1, reset=0, in=d477bcde, in_ready=0, is_last=0, byte_num=10, out=zzzzzzzz00000000zzzzzzzz00000000zzzzzzzz00000000zzzzzzzz00000000, out_ready=0, uut.padder_out_ready=0, uut.padder_out_1=0000000000000000000000000000000000000000000000000000000000000000000000000000000000000000000000000000000000000000000000000000000000000000000000000000000000000000000000000000000000000000000000000000000000000000000000000000000000000000000000000000000000000000d477060000000000 

time=240, clk=0, reset=0, in=d477bcde, in_ready=0, is_last=0, byte_num=10, out=zzzzzzzz00000000zzzzzzzz00000000zzzzzzzz00000000zzzzzzzz00000000, out_ready=0, uut.padder_out_ready=0, uut.padder_out_1=0000000000000000000000000000000000000000000000000000000000000000000000000000000000000000000000000000000000000000000000000000000000000000000000000000000000000000000000000000000000000000000000000000000000000000000000000000000000000000000000000000000000000000d477060000000000 

time=250, clk=1, reset=0, in=d477bcde, in_ready=0, is_last=0, byte_num=10, out=zzzzzzzz00000000zzzzzzzz00000000zzzzzzzz00000000zzzzzzzz00000000, out_ready=0, uut.padder_out_ready=0, uut.padder_out_1=00000000000000000000000000000000000000000000000000000000000000000000000000000000000000000000000000000000000000000000000000000000000000000000000000000000000000000000000000000000000000000000000000000000000000000000000000000000000000000000000000000000d47706000000000000000000 

time=260, clk=0, reset=0, in=d477bcde, in_ready=0, is_last=0, byte_num=10, out=zzzzzzzz00000000zzzzzzzz00000000zzzzzzzz00000000zzzzzzzz00000000, out_ready=0, uut.padder_out_ready=0, uut.padder_out_1=00000000000000000000000000000000000000000000000000000000000000000000000000000000000000000000000000000000000000000000000000000000000000000000000000000000000000000000000000000000000000000000000000000000000000000000000000000000000000000000000000000000d47706000000000000000000 

time=270, clk=1, reset=0, in=d477bcde, in_ready=0, is_last=0, byte_num=10, out=zzzzzzzz00000000zzzzzzzz00000000zzzzzzzz00000000zzzzzzzz00000000, out_ready=0, uut.padder_out_ready=0, uut.padder_out_1=000000000000000000000000000000000000000000000000000000000000000000000000000000000000000000000000000000000000000000000000000000000000000000000000000000000000000000000000000000000000000000000000000000000000000000000000000000000000000000000000d4770600000000000000000000000000 

time=280, clk=0, reset=0, in=d477bcde, in_ready=0, is_last=0, byte_num=10, out=zzzzzzzz00000000zzzzzzzz00000000zzzzzzzz00000000zzzzzzzz00000000, out_ready=0, uut.padder_out_ready=0, uut.padder_out_1=000000000000000000000000000000000000000000000000000000000000000000000000000000000000000000000000000000000000000000000000000000000000000000000000000000000000000000000000000000000000000000000000000000000000000000000000000000000000000000000000d4770600000000000000000000000000 

time=290, clk=1, reset=0, in=d477bcde, in_ready=0, is_last=0, byte_num=10, out=zzzzzzzz00000000zzzzzzzz00000000zzzzzzzz00000000zzzzzzzz00000000, out_ready=0, uut.padder_out_ready=0, uut.padder_out_1=0000000000000000000000000000000000000000000000000000000000000000000000000000000000000000000000000000000000000000000000000000000000000000000000000000000000000000000000000000000000000000000000000000000000000000000000000000000000000000d477060000000000000000000000000000000000 

time=300, clk=0, reset=0, in=d477bcde, in_ready=0, is_last=0, byte_num=10, out=zzzzzzzz00000000zzzzzzzz00000000zzzzzzzz00000000zzzzzzzz00000000, out_ready=0, uut.padder_out_ready=0, uut.padder_out_1=0000000000000000000000000000000000000000000000000000000000000000000000000000000000000000000000000000000000000000000000000000000000000000000000000000000000000000000000000000000000000000000000000000000000000000000000000000000000000000d477060000000000000000000000000000000000 

time=310, clk=1, reset=0, in=d477bcde, in_ready=0, is_last=0, byte_num=10, out=zzzzzzzz00000000zzzzzzzz00000000zzzzzzzz00000000zzzzzzzz00000000, out_ready=0, uut.padder_out_ready=0, uut.padder_out_1=00000000000000000000000000000000000000000000000000000000000000000000000000000000000000000000000000000000000000000000000000000000000000000000000000000000000000000000000000000000000000000000000000000000000000000000000000000000d47706000000000000000000000000000000000000000000 

time=320, clk=0, reset=0, in=d477bcde, in_ready=0, is_last=0, byte_num=10, out=zzzzzzzz00000000zzzzzzzz00000000zzzzzzzz00000000zzzzzzzz00000000, out_ready=0, uut.padder_out_ready=0, uut.padder_out_1=00000000000000000000000000000000000000000000000000000000000000000000000000000000000000000000000000000000000000000000000000000000000000000000000000000000000000000000000000000000000000000000000000000000000000000000000000000000d47706000000000000000000000000000000000000000000 

time=330, clk=1, reset=0, in=d477bcde, in_ready=0, is_last=0, byte_num=10, out=zzzzzzzz00000000zzzzzzzz00000000zzzzzzzz00000000zzzzzzzz00000000, out_ready=0, uut.padder_out_ready=0, uut.padder_out_1=000000000000000000000000000000000000000000000000000000000000000000000000000000000000000000000000000000000000000000000000000000000000000000000000000000000000000000000000000000000000000000000000000000000000000000000000d4770600000000000000000000000000000000000000000000000000 

time=340, clk=0, reset=0, in=d477bcde, in_ready=0, is_last=0, byte_num=10, out=zzzzzzzz00000000zzzzzzzz00000000zzzzzzzz00000000zzzzzzzz00000000, out_ready=0, uut.padder_out_ready=0, uut.padder_out_1=000000000000000000000000000000000000000000000000000000000000000000000000000000000000000000000000000000000000000000000000000000000000000000000000000000000000000000000000000000000000000000000000000000000000000000000000d4770600000000000000000000000000000000000000000000000000 

time=350, clk=1, reset=0, in=d477bcde, in_ready=0, is_last=0, byte_num=10, out=zzzzzzzz00000000zzzzzzzz00000000zzzzzzzz00000000zzzzzzzz00000000, out_ready=0, uut.padder_out_ready=0, uut.padder_out_1=0000000000000000000000000000000000000000000000000000000000000000000000000000000000000000000000000000000000000000000000000000000000000000000000000000000000000000000000000000000000000000000000000000000000000000d477060000000000000000000000000000000000000000000000000000000000 

time=360, clk=0, reset=0, in=d477bcde, in_ready=0, is_last=0, byte_num=10, out=zzzzzzzz00000000zzzzzzzz00000000zzzzzzzz00000000zzzzzzzz00000000, out_ready=0, uut.padder_out_ready=0, uut.padder_out_1=0000000000000000000000000000000000000000000000000000000000000000000000000000000000000000000000000000000000000000000000000000000000000000000000000000000000000000000000000000000000000000000000000000000000000000d477060000000000000000000000000000000000000000000000000000000000 

time=370, clk=1, reset=0, in=d477bcde, in_ready=0, is_last=0, byte_num=10, out=zzzzzzzz00000000zzzzzzzz00000000zzzzzzzz00000000zzzzzzzz00000000, out_ready=0, uut.padder_out_ready=0, uut.padder_out_1=00000000000000000000000000000000000000000000000000000000000000000000000000000000000000000000000000000000000000000000000000000000000000000000000000000000000000000000000000000000000000000000000000000000d47706000000000000000000000000000000000000000000000000000000000000000000 

time=380, clk=0, reset=0, in=d477bcde, in_ready=0, is_last=0, byte_num=10, out=zzzzzzzz00000000zzzzzzzz00000000zzzzzzzz00000000zzzzzzzz00000000, out_ready=0, uut.padder_out_ready=0, uut.padder_out_1=00000000000000000000000000000000000000000000000000000000000000000000000000000000000000000000000000000000000000000000000000000000000000000000000000000000000000000000000000000000000000000000000000000000d47706000000000000000000000000000000000000000000000000000000000000000000 

time=390, clk=1, reset=0, in=d477bcde, in_ready=0, is_last=0, byte_num=10, out=zzzzzzzz00000000zzzzzzzz00000000zzzzzzzz00000000zzzzzzzz00000000, out_ready=0, uut.padder_out_ready=0, uut.padder_out_1=000000000000000000000000000000000000000000000000000000000000000000000000000000000000000000000000000000000000000000000000000000000000000000000000000000000000000000000000000000000000000000000000d4770600000000000000000000000000000000000000000000000000000000000000000000000000 

time=400, clk=0, reset=0, in=d477bcde, in_ready=0, is_last=0, byte_num=10, out=zzzzzzzz00000000zzzzzzzz00000000zzzzzzzz00000000zzzzzzzz00000000, out_ready=0, uut.padder_out_ready=0, uut.padder_out_1=000000000000000000000000000000000000000000000000000000000000000000000000000000000000000000000000000000000000000000000000000000000000000000000000000000000000000000000000000000000000000000000000d4770600000000000000000000000000000000000000000000000000000000000000000000000000 

time=410, clk=1, reset=0, in=d477bcde, in_ready=0, is_last=0, byte_num=10, out=zzzzzzzz00000000zzzzzzzz00000000zzzzzzzz00000000zzzzzzzz00000000, out_ready=0, uut.padder_out_ready=0, uut.padder_out_1=0000000000000000000000000000000000000000000000000000000000000000000000000000000000000000000000000000000000000000000000000000000000000000000000000000000000000000000000000000000000000000d477060000000000000000000000000000000000000000000000000000000000000000000000000000000000 

time=420, clk=0, reset=0, in=d477bcde, in_ready=0, is_last=0, byte_num=10, out=zzzzzzzz00000000zzzzzzzz00000000zzzzzzzz00000000zzzzzzzz00000000, out_ready=0, uut.padder_out_ready=0, uut.padder_out_1=0000000000000000000000000000000000000000000000000000000000000000000000000000000000000000000000000000000000000000000000000000000000000000000000000000000000000000000000000000000000000000d477060000000000000000000000000000000000000000000000000000000000000000000000000000000000 

time=430, clk=1, reset=0, in=d477bcde, in_ready=0, is_last=0, byte_num=10, out=zzzzzzzz00000000zzzzzzzz00000000zzzzzzzz00000000zzzzzzzz00000000, out_ready=0, uut.padder_out_ready=0, uut.padder_out_1=00000000000000000000000000000000000000000000000000000000000000000000000000000000000000000000000000000000000000000000000000000000000000000000000000000000000000000000000000000000d47706000000000000000000000000000000000000000000000000000000000000000000000000000000000000000000 

time=440, clk=0, reset=0, in=d477bcde, in_ready=0, is_last=0, byte_num=10, out=zzzzzzzz00000000zzzzzzzz00000000zzzzzzzz00000000zzzzzzzz00000000, out_ready=0, uut.padder_out_ready=0, uut.padder_out_1=00000000000000000000000000000000000000000000000000000000000000000000000000000000000000000000000000000000000000000000000000000000000000000000000000000000000000000000000000000000d47706000000000000000000000000000000000000000000000000000000000000000000000000000000000000000000 

time=450, clk=1, reset=0, in=d477bcde, in_ready=0, is_last=0, byte_num=10, out=zzzzzzzz00000000zzzzzzzz00000000zzzzzzzz00000000zzzzzzzz00000000, out_ready=0, uut.padder_out_ready=0, uut.padder_out_1=000000000000000000000000000000000000000000000000000000000000000000000000000000000000000000000000000000000000000000000000000000000000000000000000000000000000000000000000d4770600000000000000000000000000000000000000000000000000000000000000000000000000000000000000000000000000 

time=460, clk=0, reset=0, in=d477bcde, in_ready=0, is_last=0, byte_num=10, out=zzzzzzzz00000000zzzzzzzz00000000zzzzzzzz00000000zzzzzzzz00000000, out_ready=0, uut.padder_out_ready=0, uut.padder_out_1=000000000000000000000000000000000000000000000000000000000000000000000000000000000000000000000000000000000000000000000000000000000000000000000000000000000000000000000000d4770600000000000000000000000000000000000000000000000000000000000000000000000000000000000000000000000000 

time=470, clk=1, reset=0, in=d477bcde, in_ready=0, is_last=0, byte_num=10, out=zzzzzzzz00000000zzzzzzzz00000000zzzzzzzz00000000zzzzzzzz00000000, out_ready=0, uut.padder_out_ready=0, uut.padder_out_1=0000000000000000000000000000000000000000000000000000000000000000000000000000000000000000000000000000000000000000000000000000000000000000000000000000000000000000d477060000000000000000000000000000000000000000000000000000000000000000000000000000000000000000000000000000000000 

time=480, clk=0, reset=0, in=d477bcde, in_ready=0, is_last=0, byte_num=10, out=zzzzzzzz00000000zzzzzzzz00000000zzzzzzzz00000000zzzzzzzz00000000, out_ready=0, uut.padder_out_ready=0, uut.padder_out_1=0000000000000000000000000000000000000000000000000000000000000000000000000000000000000000000000000000000000000000000000000000000000000000000000000000000000000000d477060000000000000000000000000000000000000000000000000000000000000000000000000000000000000000000000000000000000 

time=490, clk=1, reset=0, in=d477bcde, in_ready=0, is_last=0, byte_num=10, out=zzzzzzzz00000000zzzzzzzz00000000zzzzzzzz00000000zzzzzzzz00000000, out_ready=0, uut.padder_out_ready=0, uut.padder_out_1=00000000000000000000000000000000000000000000000000000000000000000000000000000000000000000000000000000000000000000000000000000000000000000000000000000000d47706000000000000000000000000000000000000000000000000000000000000000000000000000000000000000000000000000000000000000000 

time=500, clk=0, reset=0, in=d477bcde, in_ready=0, is_last=0, byte_num=10, out=zzzzzzzz00000000zzzzzzzz00000000zzzzzzzz00000000zzzzzzzz00000000, out_ready=0, uut.padder_out_ready=0, uut.padder_out_1=00000000000000000000000000000000000000000000000000000000000000000000000000000000000000000000000000000000000000000000000000000000000000000000000000000000d47706000000000000000000000000000000000000000000000000000000000000000000000000000000000000000000000000000000000000000000 

time=510, clk=1, reset=0, in=d477bcde, in_ready=0, is_last=0, byte_num=10, out=zzzzzzzz00000000zzzzzzzz00000000zzzzzzzz00000000zzzzzzzz00000000, out_ready=0, uut.padder_out_ready=0, uut.padder_out_1=000000000000000000000000000000000000000000000000000000000000000000000000000000000000000000000000000000000000000000000000000000000000000000000000d4770600000000000000000000000000000000000000000000000000000000000000000000000000000000000000000000000000000000000000000000000000 

time=520, clk=0, reset=0, in=d477bcde, in_ready=0, is_last=0, byte_num=10, out=zzzzzzzz00000000zzzzzzzz00000000zzzzzzzz00000000zzzzzzzz00000000, out_ready=0, uut.padder_out_ready=0, uut.padder_out_1=000000000000000000000000000000000000000000000000000000000000000000000000000000000000000000000000000000000000000000000000000000000000000000000000d4770600000000000000000000000000000000000000000000000000000000000000000000000000000000000000000000000000000000000000000000000000 

time=530, clk=1, reset=0, in=d477bcde, in_ready=0, is_last=0, byte_num=10, out=zzzzzzzz00000000zzzzzzzz00000000zzzzzzzz00000000zzzzzzzz00000000, out_ready=0, uut.padder_out_ready=0, uut.padder_out_1=0000000000000000000000000000000000000000000000000000000000000000000000000000000000000000000000000000000000000000000000000000000000000000d477060000000000000000000000000000000000000000000000000000000000000000000000000000000000000000000000000000000000000000000000000000000000 

time=540, clk=0, reset=0, in=d477bcde, in_ready=0, is_last=0, byte_num=10, out=zzzzzzzz00000000zzzzzzzz00000000zzzzzzzz00000000zzzzzzzz00000000, out_ready=0, uut.padder_out_ready=0, uut.padder_out_1=0000000000000000000000000000000000000000000000000000000000000000000000000000000000000000000000000000000000000000000000000000000000000000d477060000000000000000000000000000000000000000000000000000000000000000000000000000000000000000000000000000000000000000000000000000000000 

time=550, clk=1, reset=0, in=d477bcde, in_ready=0, is_last=0, byte_num=10, out=zzzzzzzz00000000zzzzzzzz00000000zzzzzzzz00000000zzzzzzzz00000000, out_ready=0, uut.padder_out_ready=0, uut.padder_out_1=00000000000000000000000000000000000000000000000000000000000000000000000000000000000000000000000000000000000000000000000000000000d47706000000000000000000000000000000000000000000000000000000000000000000000000000000000000000000000000000000000000000000000000000000000000000000 

time=560, clk=0, reset=0, in=d477bcde, in_ready=0, is_last=0, byte_num=10, out=zzzzzzzz00000000zzzzzzzz00000000zzzzzzzz00000000zzzzzzzz00000000, out_ready=0, uut.padder_out_ready=0, uut.padder_out_1=00000000000000000000000000000000000000000000000000000000000000000000000000000000000000000000000000000000000000000000000000000000d47706000000000000000000000000000000000000000000000000000000000000000000000000000000000000000000000000000000000000000000000000000000000000000000 

time=570, clk=1, reset=0, in=d477bcde, in_ready=0, is_last=0, byte_num=10, out=zzzzzzzz00000000zzzzzzzz00000000zzzzzzzz00000000zzzzzzzz00000000, out_ready=0, uut.padder_out_ready=0, uut.padder_out_1=000000000000000000000000000000000000000000000000000000000000000000000000000000000000000000000000000000000000000000000000d4770600000000000000000000000000000000000000000000000000000000000000000000000000000000000000000000000000000000000000000000000000000000000000000000000000 

time=580, clk=0, reset=0, in=d477bcde, in_ready=0, is_last=0, byte_num=10, out=zzzzzzzz00000000zzzzzzzz00000000zzzzzzzz00000000zzzzzzzz00000000, out_ready=0, uut.padder_out_ready=0, uut.padder_out_1=000000000000000000000000000000000000000000000000000000000000000000000000000000000000000000000000000000000000000000000000d4770600000000000000000000000000000000000000000000000000000000000000000000000000000000000000000000000000000000000000000000000000000000000000000000000000 

time=590, clk=1, reset=0, in=d477bcde, in_ready=0, is_last=0, byte_num=10, out=zzzzzzzz00000000zzzzzzzz00000000zzzzzzzz00000000zzzzzzzz00000000, out_ready=0, uut.padder_out_ready=0, uut.padder_out_1=0000000000000000000000000000000000000000000000000000000000000000000000000000000000000000000000000000000000000000d477060000000000000000000000000000000000000000000000000000000000000000000000000000000000000000000000000000000000000000000000000000000000000000000000000000000000 

